Group7 Project - Coffee Rating
…
## `summarise()` ungrouping output (override with `.groups` argument)

## From the ratingbycountry file, we see that some of the country names are not standard names. Thus, the first thing to do is to match the country names with standard names in the world map.
ratingbycountry[6,1] <- "Ivory Coast"
ratingbycountry[29,1] <- "Tanzania"
ratingbycountry[34,1] <- "Puerto Rico"
ratingbycountry[32,1] <- "USA"
ratingbycountry[33,1] <- "USA(Hawaii)"
write.table(ratingbycountry, file = "Overall_Rating_by_Country.txt")
ratingbycountry

## # A tibble: 37 x 5
##    country_of_origin count highest_score lowest_score mean_score
##    <chr>             <int>         <dbl>        <dbl>      <dbl>
##  1 Brazil              132          88.8         70.7       82.4
##  2 Burundi               2          83.3         80.3       81.8
##  3 China                16          87.2         78         82.9
##  4 Colombia            183          86           72.8       83.1
##  5 Costa Rica           51          87.2         71.8       82.8
##  6 Ivory Coast           1          79.3         79.3       79.3
##  7 Ecuador               3          83.8         78.1       80.2
##  8 El Salvador          21          85.6         79.7       83.1
##  9 Ethiopia             44          90.6         80         85.5
## 10 Guatemala           181          89.8         59.8       81.8
## #  with 27 more rows
…
## `summarise()` ungrouping output (override with `.groups` argument)

world_Hawaii_label[1,1] <- "USA(Hawaii)"
world_USA1_label<- subset(world_USA, subregion != "Hawaii")%>%
  group_by(region) %>%
  summarise(long = mean(long), lat = mean(lat))

## `summarise()` ungrouping output (override with `.groups` argument)

new_map_label <- rbind(world_map1_label,world_Hawaii_label,world_USA1_label)
new_map_label

## # A tibble: 36 x 3
##    region       long   lat
##    <chr>       <dbl> <dbl>
##  1 Brazil      -55.3 -9.80
##  2 Burundi      30.0 -3.05
##  3 China       107.  35.1 
##  4 Colombia    -72.8  3.47
##  5 Costa Rica  -84.0  9.76
##  6 Ecuador     -81.6 -1.64
##  7 El Salvador -88.8 13.9 
##  8 Ethiopia     39.0  9.19
##  9 Guatemala   -90.2 15.6 
## 10 Haiti       -72.8 18.9 
## #  with 26 more rows

## Merge coffee rating data with the map data.
world_coffee_rating <- left_join(ratingbycountry,new_map, by=c("country_of_origin" = "region"))
write.table(world_coffee_rating, file = "mapping_coffee_rating.txt")
world_coffee_rating

## # A tibble: 25,067 x 10
##    country_of_orig count highest_score lowest_score mean_score  long   lat
##    <chr>            <int>         <dbl>        <dbl>      <dbl> <dbl> <dbl>
##  1 Brazil             132          88.8         70.7       82.4 -48.5 -27.8
##  2 Brazil             132          88.8         70.7       82.4 -48.6 -27.8
##  3 Brazil             132          88.8         70.7       82.4 -48.5 -27.6
##  4 Brazil             132          88.8         70.7       82.4 -48.5 -27.5
##  5 Brazil             132          88.8         70.7       82.4 -48.5 -27.4
##  6 Brazil             132          88.8         70.7       82.4 -48.4 -27.4
##  7 Brazil             132          88.8         70.7       82.4 -48.4 -27.5
##  8 Brazil             132          88.8         70.7       82.4 -48.4 -27.6
##  9 Brazil             132          88.8         70.7       82.4 -48.5 -27.7
## 10 Brazil             132          88.8         70.7       82.4 -48.5 -27.8
## #  with 25,057 more rows, and 3 more variables: group <dbl>, order <int>,
## #   subregion <chr>
…
Spider graph

## Code for spider graph
#2.2.1.1 Create the data sets for sensory atributes. Since Ethiopia has the highest score on cup points and Ecuador has the lowest. We will show in a Spider plot how the sensory attributes look for both countries.

library(fmsb)

#Summary of sensory atributes from Ethiopia.
data_sensory_1= select(coffee_ratings,country_of_origin, aroma, flavor, aftertaste, acidity, body, balance, uniformity, sweetness, moisture)

ethiophia_data_sensory= filter(data_sensory_1, country_of_origin== "Ethiopia")
ethiophia_data_sensory

## # A tibble: 44 x 10
##    country_of_orig aroma flavor aftertaste acidity  body balance uniformity
##    <chr>            <dbl>  <dbl>      <dbl>   <dbl> <dbl>   <dbl>      <dbl>
##  1 Ethiopia          8.67   8.83       8.67    8.75  8.5     8.42      10   
##  2 Ethiopia          8.75   8.67       8.5     8.58  8.42    8.42      10   
##  3 Ethiopia          8.17   8.58       8.42    8.42  8.5     8.25      10   
##  4 Ethiopia          8.25   8.5        8.25    8.5   8.42    8.33      10   
##  5 Ethiopia          8.25   8.33       8.5     8.42  8.33    8.5       10   
##  6 Ethiopia          8.67   8.67       8.58    8.42  8.33    8.42       9.33
##  7 Ethiopia          8.08   8.58       8.5     8.5   7.67    8.42      10   
##  8 Ethiopia          8.17   8.67       8.25    8.5   7.75    8.17      10   
##  9 Ethiopia          8.25   8.33       8.5     8.25  8.58    8.75       9.33
## 10 Ethiopia          8.17   8.33       8.25    8.33  8.42    8.33       9.33
## #  with 34 more rows, and 2 more variables: sweetness <dbl>, moisture <dbl>

graph_sensory_et= select(ethiophia_data_sensory, aroma, flavor, aftertaste, acidity, body, balance, uniformity, sweetness, moisture)
graph_sensory_et

## # A tibble: 44 x 9
##    aroma flavor aftertaste acidity  body balance uniformity sweetness moisture
##    <dbl>  <dbl>      <dbl>   <dbl> <dbl>   <dbl>      <dbl>     <dbl>    <dbl>
##  1  8.67   8.83       8.67    8.75  8.5     8.42      10        10        0.12
##  2  8.75   8.67       8.5     8.58  8.42    8.42      10        10        0.12
##  3  8.17   8.58       8.42    8.42  8.5     8.25      10        10        0.11
##  4  8.25   8.5        8.25    8.5   8.42    8.33      10        10        0.12
##  5  8.25   8.33       8.5     8.42  8.33    8.5       10         9.33     0.03
##  6  8.67   8.67       8.58    8.42  8.33    8.42       9.33      9.33     0.03
##  7  8.08   8.58       8.5     8.5   7.67    8.42      10        10        0.1 
##  8  8.17   8.67       8.25    8.5   7.75    8.17      10        10        0.1 
##  9  8.25   8.33       8.5     8.25  8.58    8.75       9.33      9.33     0.05
## 10  8.17   8.33       8.25    8.33  8.42    8.33       9.33      9.33     0.05
## #  with 34 more rows
…
